^C:\USERS\SABA\DESKTOP\VS_PROJECTS\CALCULATOR\CALCULATOR_C_INLINE_ASM\CALCULATOR\CALCULATOR.CPP
C:\USERS\SABA\DESKTOP\VS_PROJECTS\CALCULATOR\CALCULATOR_C_INLINE_ASM\CALCULATOR\DEBUG\VC143.PDB
C:\USERS\SABA\DESKTOP\VS_PROJECTS\CALCULATOR\CALCULATOR_C_INLINE_ASM\CALCULATOR\DEBUG\VC143.IDB
C:\USERS\SABA\DESKTOP\VS_PROJECTS\CALCULATOR\CALCULATOR_C_INLINE_ASM\CALCULATOR\DEBUG\CALCULATOR.OBJ
