^D:\CALCULATOR_PROJECT\CALCULATOR\DEBUG\CALCULATOR.OBJ
/OUT:"D:\CALCULATOR_PROJECT\DEBUG\CALCULATOR.EXE" /INCREMENTAL /NOLOGO KERNEL32.LIB USER32.LIB GDI32.LIB WINSPOOL.LIB COMDLG32.LIB ADVAPI32.LIB SHELL32.LIB OLE32.LIB OLEAUT32.LIB UUID.LIB ODBC32.LIB ODBCCP32.LIB /MANIFEST /MANIFESTUAC:"level='asInvoker' uiAccess='false'" /manifest:embed /DEBUG:FASTLINK /PDB:"D:\CALCULATOR_PROJECT\DEBUG\CALCULATOR.PDB" /SUBSYSTEM:CONSOLE /TLBID:1 /DYNAMICBASE /NXCOMPAT /IMPLIB:"D:\CALCULATOR_PROJECT\DEBUG\CALCULATOR.LIB" /MACHINE:X86 DEBUG\CALCULATOR.OBJ
^C:\USERS\SABA\DESKTOP\VS_PROJECTS\CALC\TEST\CALCULATOR_PROJECT\CALCULATOR\DEBUG\CALCULATOR.OBJ
/OUT:"C:\USERS\SABA\DESKTOP\VS_PROJECTS\CALC\TEST\CALCULATOR_PROJECT\DEBUG\CALCULATOR.EXE" /INCREMENTAL /ILK:"DEBUG\CALCULATOR.ILK" /NOLOGO KERNEL32.LIB USER32.LIB GDI32.LIB WINSPOOL.LIB COMDLG32.LIB ADVAPI32.LIB SHELL32.LIB OLE32.LIB OLEAUT32.LIB UUID.LIB ODBC32.LIB ODBCCP32.LIB /MANIFEST /MANIFESTUAC:"level='asInvoker' uiAccess='false'" /manifest:embed /DEBUG:FULL /PDB:"C:\USERS\SABA\DESKTOP\VS_PROJECTS\CALC\TEST\CALCULATOR_PROJECT\DEBUG\CALCULATOR.PDB" /SUBSYSTEM:CONSOLE /TLBID:1 /DYNAMICBASE /NXCOMPAT /IMPLIB:"C:\USERS\SABA\DESKTOP\VS_PROJECTS\CALC\TEST\CALCULATOR_PROJECT\DEBUG\CALCULATOR.LIB" /MACHINE:X86 DEBUG\CALCULATOR.OBJ
^C:\USERS\SABA\DESKTOP\VS_PROJECTS\CALCULATOR\CALCULATOR_C_INLINE_ASM\CALCULATOR\DEBUG\CALCULATOR.OBJ
/OUT:"C:\USERS\SABA\DESKTOP\VS_PROJECTS\CALCULATOR\CALCULATOR_C_INLINE_ASM\DEBUG\CALCULATOR.EXE" /INCREMENTAL /ILK:"DEBUG\CALCULATOR.ILK" /NOLOGO KERNEL32.LIB USER32.LIB GDI32.LIB WINSPOOL.LIB COMDLG32.LIB ADVAPI32.LIB SHELL32.LIB OLE32.LIB OLEAUT32.LIB UUID.LIB ODBC32.LIB ODBCCP32.LIB /MANIFEST /MANIFESTUAC:"level='asInvoker' uiAccess='false'" /manifest:embed /DEBUG:FULL /PDB:"C:\USERS\SABA\DESKTOP\VS_PROJECTS\CALCULATOR\CALCULATOR_C_INLINE_ASM\DEBUG\CALCULATOR.PDB" /SUBSYSTEM:CONSOLE /TLBID:1 /DYNAMICBASE /NXCOMPAT /IMPLIB:"C:\USERS\SABA\DESKTOP\VS_PROJECTS\CALCULATOR\CALCULATOR_C_INLINE_ASM\DEBUG\CALCULATOR.LIB" /MACHINE:X86 DEBUG\CALCULATOR.OBJ
